{
	"info": {
		"_postman_id": "c7854b43-5ff1-4cd8-ada7-fb50566b62bd",
		"name": "Books-Store",
		"schema": "https://schema.getpostman.com/json/collection/v2.1.0/collection.json"
	},
	"item": [
		{
			"name": "Get",
			"request": {
				"method": "GET",
				"header": [],
				"url": {
					"raw": "localhost:8081/books-store/books/",
					"host": [
						"localhost"
					],
					"port": "8081",
					"path": [
						"books-store",
						"books",
						""
					]
				}
			},
			"response": []
		},
		{
			"name": "Post",
			"request": {
				"method": "POST",
				"header": [
					{
						"key": "Content-Type",
						"name": "Content-Type",
						"value": "application/json",
						"type": "text"
					}
				],
				"body": {
					"mode": "raw",
					"raw": "{\n\t\"name\": \"libro1\",\n\t\"ranking\": 4.5,\n\t\"isbn\": \"arqrqra13123we\",\n\t\"reference\": \"librito 1\"\n}",
					"options": {
						"raw": {
							"language": "json"
						}
					}
				},
				"url": {
					"raw": "localhost:8081/books-store/books/",
					"host": [
						"localhost"
					],
					"port": "8081",
					"path": [
						"books-store",
						"books",
						""
					]
				}
			},
			"response": []
		},
		{
			"name": "Get by Isbn",
			"request": {
				"method": "GET",
				"header": [],
				"url": {
					"raw": "localhost:8081/books-store/books/isbn/arqrqra13123we",
					"host": [
						"localhost"
					],
					"port": "8081",
					"path": [
						"books-store",
						"books",
						"isbn",
						"arqrqra13123we"
					]
				}
			},
			"response": []
		},
		{
			"name": "Delete by Id",
			"request": {
				"method": "DELETE",
				"header": [],
				"url": {
					"raw": "localhost:8081/books-store/books/id/1",
					"host": [
						"localhost"
					],
					"port": "8081",
					"path": [
						"books-store",
						"books",
						"id",
						"1"
					]
				}
			},
			"response": []
		},
		{
			"name": "Put",
			"request": {
				"method": "PUT",
				"header": [
					{
						"key": "Content-Type",
						"name": "Content-Type",
						"value": "application/json",
						"type": "text"
					}
				],
				"body": {
					"mode": "raw",
					"raw": "{\n\t\"id\": 3,\n\t\"name\": \"libro3\",\n\t\"ranking\": 5,\n\t\"isbn\": \"rjfhefiekiqsk121\",\n\t\"reference\": \"librito 3\"\n}",
					"options": {
						"raw": {
							"language": "json"
						}
					}
				},
				"url": {
					"raw": "localhost:8081/books-store/books/",
					"host": [
						"localhost"
					],
					"port": "8081",
					"path": [
						"books-store",
						"books",
						""
					]
				}
			},
			"response": []
		}
	],
	"protocolProfileBehavior": {}
}